 {'Сайгид Билалов': [10,
  {'2022-09-28T09:01:10',
   '2022-11-05T08:39:32',
   '2022-12-19T08:53:47',
   '2022-12-22T16:00:01',
   '2022-12-24T11:39:33',
   '2022-12-30T15:24:39'}],
 'Сергий Чиркова': [14,
  {'2022-09-28T10:02:27',
   '2022-09-28T12:15:54',
   '2022-09-28T12:22:21',
   '2022-09-28T12:38:27',
   '2022-12-08T08:58:17',
   '2023-01-27T12:25:30',
   '2023-02-06T09:45:44',
   '2023-03-24T13:54:29',
   '2022-09-28T12:13:26',
   '2022-09-28T12:42:46',
   '2022-09-30T15:17:12',
   '2023-02-07T17:59:38',
   '2023-03-17T18:00:41',
   '2023-03-29T18:22:22'}],
 'Саша Зубковский': [23,
  {'2022-09-28T13:14:43',
   '2022-09-30T14:13:51',
   '2022-10-04T12:37:09',
   '2022-10-06T16:21:09',
   '2022-10-10T15:48:12',
   '2022-10-19T09:30:10',
   '2022-10-20T16:09:29',
   '2022-10-23T16:51:23',
   '2022-10-24T15:53:58',
   '2022-10-26T14:27:03',
   '2022-11-05T15:34:56',
   '2022-11-13T10:46:37',
   '2022-11-18T08:10:44',
   '2022-11-18T14:51:18',
   '2022-11-20T14:38:24',
   '2022-11-21T07:08:03',
   '2022-11-26T14:43:43',
   '2022-12-04T18:09:22',
   '2022-12-11T11:03:45',
   '2022-12-24T16:08:40',
   '2022-12-31T12:46:01',
   '2023-01-01T15:32:30',
   '2023-02-15T13:16:02'}],
 'Вячеслав Володин': [11,
  {'2022-09-28T14:43:04',
   '2022-09-29T10:17:03',
   '2022-09-29T11:56:40',
   '2022-10-20T06:51:51',
   '2022-11-27T14:16:32',
   '2022-12-25T10:51:48',
   '2023-02-13T08:46:39',
   '2023-03-01T08:30:14',
   '2023-03-25T13:26:00'}],
 'Евгений Кудрявцев': [10,
  {'2022-09-28T15:05:24',
   '2022-10-11T12:55:31',
   '2022-10-13T13:59:35',
   '2022-10-24T16:43:39',
   '2022-11-04T14:53:09',
   '2022-12-11T15:26:40',
   '2023-01-07T14:20:52',
   '2023-02-15T10:14:24',
   '2023-03-08T15:14:40',
   '2023-03-17T11:42:33'}],
 'Павел Чиков': [7,
  {'2022-09-29T11:46:35',
   '2022-10-05T16:22:13',
   '2022-11-01T14:34:02',
   '2022-12-07T14:39:01',
   '2023-03-16T10:58:54',
   '2023-03-23T20:24:03'}],
 'Александр Плющев': [6,
  {'2022-09-29T12:12:20',
   '2022-10-21T21:14:59',
   '2022-10-24T09:28:23',
   '2022-10-28T10:38:51',
   '2022-11-02T12:53:18',
   '2022-11-16T10:00:37'}],
 'Татьяна Мерзлякова': [22,
  {'2022-09-30T10:41:00',
   '2022-10-03T13:19:12',
   '2022-10-12T11:59:44',
   '2022-10-12T12:19:58',
   '2022-10-14T08:03:28',
   '2022-11-17T07:58:06',
   '2022-12-07T17:27:20',
   '2022-12-12T11:10:56',
   '2022-12-12T11:21:36',
   '2022-12-12T11:35:21',
   '2022-12-12T11:36:53',
   '2022-12-12T11:49:02',
   '2022-12-29T10:31:31',
   '2023-02-13T09:41:44',
   '2023-02-14T15:59:04',
   '2023-02-17T08:53:16',
   '2023-02-22T13:38:35',
   '2023-02-22T16:23:02',
   '2023-03-01T12:58:05',
   '2023-03-05T18:58:02',
   '2023-03-15T10:17:18'}],
 'Максим Иванов': [36,
  {'2022-09-30T13:05:30',
   '2022-10-01T17:22:27',
   '2022-10-03T13:19:12',
   '2022-10-05T13:50:40',
   '2022-10-05T18:09:50',
   '2022-10-11T17:08:32',
   '2022-10-12T09:31:56',
   '2022-10-12T17:21:37',
   '2022-10-14T10:49:55',
   '2022-10-17T14:03:04',
   '2022-10-28T11:21:15',
   '2022-11-02T08:40:07',
   '2022-11-07T11:13:40',
   '2022-11-09T11:42:19',
   '2022-11-10T12:20:27',
   '2022-11-21T13:44:53',
   '2022-11-22T10:17:42',
   '2022-11-26T14:43:43',
   '2022-12-05T12:32:31',
   '2022-12-06T11:13:00',
   '2022-12-07T11:59:37',
   '2022-12-08T15:30:44',
   '2023-01-03T10:58:53',
   '2023-01-16T11:13:27',
   '2023-02-06T13:49:14',
   '2023-02-17T12:35:20',
   '2023-02-25T10:10:35',
   '2023-03-03T11:19:59',
   '2023-03-16T19:20:51',
   '2023-04-04T11:41:09'}],
 'Владимир Путин': [136,
  {'2022-09-30T15:01:15',
   '2022-09-30T15:19:11',
   '2022-09-30T15:20:55',
   '2022-09-30T15:24:45',
   '2022-09-30T15:27:45',
   '2022-09-30T15:30:54',
   '2022-09-30T15:34:07',
   '2022-09-30T15:37:26',
   '2022-09-30T15:39:55',
   '2022-09-30T15:43:08',
   '2022-09-30T15:44:37',
   '2022-09-30T15:45:55',
   '2022-09-30T15:49:12',
   '2022-09-30T15:51:37',
   '2022-09-30T15:54:11',
   '2022-09-30T15:56:13',
   '2022-09-30T16:01:32',
   '2022-09-30T17:16:46',
   '2022-10-03T09:15:50',
   '2022-10-04T10:39:42',
   '2022-10-05T09:47:48',
   '2022-10-07T15:14:04',
   '2022-10-07T15:32:35',
   '2022-10-09T12:25:57',
   '2022-10-09T15:16:39',
   '2022-10-10T11:32:31',
   '2022-10-10T13:06:32',
   '2022-10-14T15:48:26',
   '2022-10-14T15:57:01',
   '2022-10-14T15:58:35',
   '2022-10-15T18:13:47',
   '2022-10-18T07:04:35',
   '2022-10-19T14:48:11',
   '2022-10-19T14:53:05',
   '2022-10-19T15:04:25',
   '2022-10-19T15:09:15',
   '2022-10-19T17:31:12',
   '2022-10-20T16:10:14',
   '2022-10-27T17:19:14',
   '2022-10-27T17:22:28',
   '2022-10-27T17:28:56',
   '2022-10-27T18:01:54',
   '2022-10-27T18:22:33',
   '2022-10-27T18:26:03',
   '2022-10-27T18:36:50',
   '2022-10-27T18:41:26',
   '2022-10-27T19:29:18',
   '2022-10-28T17:10:26',
   '2022-10-28T17:57:32',
   '2022-11-04T09:05:17',
   '2022-11-04T14:53:09',
   '2022-11-04T16:04:37',
   '2022-11-04T16:49:48',
   '2022-11-24T11:39:44',
   '2022-11-26T09:16:13',
   '2022-11-26T14:43:43',
   '2022-11-29T15:38:19',
   '2022-12-05T16:30:30',
   '2022-12-07T14:13:39',
   '2022-12-07T17:27:20',
   '2022-12-13T15:56:33',
   '2022-12-20T15:15:01',
   '2022-12-21T16:07:37',
   '2022-12-22T11:20:43',
   '2022-12-23T09:02:01',
   '2022-12-23T12:45:40',
   '2022-12-28T11:03:50',
   '2022-12-29T17:30:53',
   '2022-12-31T16:27:01',
   '2023-01-06T09:42:03',
   '2023-01-07T14:20:52',
   '2023-01-10T12:06:18',
   '2023-01-11T14:29:22',
   '2023-01-17T19:00:20',
   '2023-01-19T07:45:14',
   '2023-01-23T12:36:53',
   '2023-01-31T13:50:50',
   '2023-02-06T10:56:49',
   '2023-02-08T08:37:13',
   '2023-02-10T13:14:48',
   '2023-02-16T11:39:34',
   '2023-02-19T14:50:02',
   '2023-02-21T11:33:44',
   '2023-02-21T11:46:33',
   '2023-02-21T12:04:58',
   '2023-02-21T12:06:07',
   '2023-02-21T12:21:58',
   '2023-02-21T12:27:28',
   '2023-02-21T12:31:31',
   '2023-02-21T12:37:26',
   '2023-02-21T12:57:26',
   '2023-02-21T13:11:54',
   '2023-02-21T13:30:18',
   '2023-02-21T13:32:14',
   '2023-02-21T13:43:31',
   '2023-02-21T13:45:07',
   '2023-02-21T13:48:04',
   '2023-02-21T14:43:19',
   '2023-02-21T17:04:39',
   '2023-02-21T20:07:09',
   '2023-02-22T10:36:39',
   '2023-02-22T11:06:02',
   '2023-02-22T13:21:18',
   '2023-02-22T13:38:35',
   '2023-02-26T14:20:53',
   '2023-02-28T19:11:18',
   '2023-03-02T13:37:53',
   '2023-03-02T15:07:45',
   '2023-03-03T15:30:55',
   '2023-03-06T13:46:32',
   '2023-03-07T17:52:32',
   '2023-03-10T08:13:21',
   '2023-03-14T11:11:02',
   '2023-03-16T12:33:23',
   '2023-03-16T15:15:31',
   '2023-03-17T18:26:18',
   '2023-03-18T10:39:07',
   '2023-03-19T18:09:03',
   '2023-03-20T16:13:16',
   '2023-03-24T12:35:20',
   '2023-03-26T16:26:29',
   '2023-03-27T16:15:18',
   '2023-03-30T13:21:30',
   '2023-03-30T17:28:13',
   '2023-04-03T12:12:06',
   '2023-04-04T16:03:52'}],
 'Владимир Зеленский': [6,
  {'2022-09-30T17:04:10',
   '2022-09-30T17:16:46',
   '2023-01-24T08:49:01',
   '2023-02-06T08:49:35',
   '2023-02-07T15:31:02',
   '2023-03-19T09:19:22'}],
 'Сергей Шойгу': [11,
  {'2022-10-01T15:30:27',
   '2022-10-04T15:33:53',
   '2022-10-28T11:21:15',
   '2022-10-28T17:10:26',
   '2022-11-04T09:05:17',
   '2022-11-04T16:04:37',
   '2022-11-09T18:17:17',
   '2022-11-14T10:46:29',
   '2022-12-21T16:07:37',
   '2023-01-17T14:07:20'}],
 'Дмитрий Песков': [16,
  {'2022-10-04T10:39:42',
   '2022-10-09T15:16:39',
   '2022-10-14T19:09:05',
   '2022-11-01T14:34:02',
   '2022-12-08T13:14:49',
   '2022-12-23T12:45:40',
   '2023-01-23T12:36:53',
   '2023-01-23T16:42:02',
   '2023-02-10T13:14:48',
   '2023-02-19T14:50:02',
   '2023-02-21T11:46:33',
   '2023-03-02T13:37:53',
   '2023-03-30T13:21:30'}],
 'Алексей Навальный': [23,
  {'2022-10-04T17:41:21',
   '2022-10-07T09:40:24',
   '2022-10-11T14:49:42',
   '2022-10-14T21:19:03',
   '2022-10-21T21:14:59',
   '2022-11-10T08:08:48',
   '2022-11-18T08:14:27',
   '2022-11-18T10:59:49',
   '2022-12-06T16:41:47',
   '2023-01-22T15:06:43',
   '2023-03-16T09:54:41',
   '2023-03-16T12:33:23',
   '2023-03-16T13:00:19',
   '2023-03-16T14:09:09',
   '2023-03-16T14:47:30',
   '2023-03-16T15:06:16',
   '2023-03-16T15:15:31',
   '2023-03-16T15:21:13',
   '2023-03-16T16:47:51',
   '2023-03-17T13:14:50',
   '2023-03-19T18:09:03'}],
 'Евгений Куйвашев': [43,
  {'2022-10-05T13:28:17',
   '2022-10-10T11:32:31',
   '2022-10-18T13:47:31',
   '2022-10-18T15:13:16',
   '2022-10-19T10:10:44',
   '2022-10-19T13:12:22',
   '2022-10-19T16:10:17',
   '2022-10-20T09:23:34',
   '2022-10-25T15:57:01',
   '2022-11-07T11:13:40',
   '2022-12-05T15:11:37',
   '2022-12-07T14:13:39',
   '2022-12-09T10:01:33',
   '2022-12-09T10:13:16',
   '2022-12-09T10:24:50',
   '2022-12-09T10:39:48',
   '2022-12-09T10:45:22',
   '2022-12-09T10:46:41',
   '2022-12-09T10:48:58',
   '2022-12-09T10:57:59',
   '2022-12-09T11:09:35',
   '2022-12-15T10:45:36',
   '2022-12-15T19:09:57',
   '2022-12-18T09:08:59',
   '2022-12-19T13:51:49',
   '2023-01-01T13:55:31',
   '2023-01-05T15:50:44',
   '2023-01-11T13:01:56',
   '2023-01-12T12:09:25',
   '2023-01-27T08:41:52',
   '2023-02-13T12:42:55',
   '2023-02-20T12:05:28',
   '2023-02-24T10:59:32',
   '2023-02-24T17:07:04',
   '2023-03-09T11:12:42',
   '2023-03-12T18:05:41',
   '2023-03-16T10:44:01',
   '2023-03-22T15:02:00'}],
 'Александр Бастрыкин': [10,
  {'2022-10-06T13:42:12',
   '2022-10-14T09:19:53',
   '2022-12-04T09:49:03',
   '2023-02-13T18:27:30',
   '2023-02-18T10:55:48',
   '2023-02-19T17:37:00',
   '2023-03-22T11:30:12'}],
 'Евгений Ройзман': [95,
  {'2022-10-07T09:40:24',
   '2022-10-28T13:31:04',
   '2022-11-09T13:15:00',
   '2022-11-10T08:08:48',
   '2022-11-16T14:00:05',
   '2022-11-18T08:14:27',
   '2022-11-18T08:29:26',
   '2022-11-18T08:46:16',
   '2022-11-18T09:01:51',
   '2022-11-18T10:59:49',
   '2022-11-25T16:36:17',
   '2022-11-25T21:12:47',
   '2022-11-26T15:55:00',
   '2022-12-03T17:31:57',
   '2022-12-08T14:29:33',
   '2022-12-09T16:06:02',
   '2022-12-19T16:24:43',
   '2022-12-21T18:01:29',
   '2022-12-30T10:44:22',
   '2023-01-05T15:50:44',
   '2023-01-05T17:54:12',
   '2023-01-07T10:45:37',
   '2023-01-10T09:19:02',
   '2023-01-10T12:53:26',
   '2023-01-10T16:50:33',
   '2023-01-11T09:29:22',
   '2023-01-11T09:44:25',
   '2023-01-11T09:49:02',
   '2023-01-12T13:19:24',
   '2023-01-13T16:53:01',
   '2023-02-04T14:21:40',
   '2023-02-05T18:00:00',
   '2023-02-06T18:10:04',
   '2023-02-12T17:05:24',
   '2023-03-06T08:44:36',
   '2023-03-11T11:51:07',
   '2023-03-16T09:54:41',
   '2023-03-16T10:20:19',
   '2023-03-16T10:44:01',
   '2023-03-16T11:17:58',
   '2023-03-16T12:33:23',
   '2023-03-16T13:00:19',
   '2023-03-16T13:57:49',
   '2023-03-16T14:09:09',
   '2023-03-16T14:23:59',
   '2023-03-16T14:40:29',
   '2023-03-16T14:47:30',
   '2023-03-16T14:52:00',
   '2023-03-16T14:57:25',
   '2023-03-16T15:06:16',
   '2023-03-16T15:13:22',
   '2023-03-16T15:15:31',
   '2023-03-16T15:21:13',
   '2023-03-16T15:27:00',
   '2023-03-16T16:52:41',
   '2023-03-16T16:58:15',
   '2023-03-16T17:13:43',
   '2023-03-16T18:15:01',
   '2023-03-17T08:28:54',
   '2023-03-17T11:42:33',
   '2023-03-17T13:10:51',
   '2023-03-17T13:14:50',
   '2023-03-17T13:53:01',
   '2023-03-17T13:59:40',
   '2023-03-17T16:05:07',
   '2023-03-19T18:09:03',
   '2023-03-21T08:41:59',
   '2023-03-28T11:29:59',
   '2023-03-29T10:03:43',
   '2023-03-30T10:23:27',
   '2023-03-30T18:09:47',
   '2023-04-01T11:24:21'}],
 'Алексей Орлов': [47,
  {'2022-10-07T10:57:43',
   '2022-10-12T11:11:46',
   '2022-10-14T08:56:33',
   '2022-11-14T12:27:03',
   '2022-11-15T10:44:36',
   '2022-11-29T12:24:25',
   '2022-11-30T11:32:40',
   '2022-12-05T17:01:02',
   '2022-12-12T16:28:00',
   '2022-12-14T14:27:50',
   '2022-12-15T13:16:42',
   '2022-12-16T09:01:04',
   '2022-12-16T09:14:19',
   '2022-12-16T09:34:18',
   '2022-12-19T15:27:02',
   '2022-12-21T11:13:28',
   '2022-12-21T11:44:22',
   '2022-12-21T14:05:37',
   '2022-12-28T14:18:17',
   '2022-12-28T18:27:03',
   '2023-01-10T09:19:02',
   '2023-01-10T15:51:46',
   '2023-01-11T09:29:22',
   '2023-01-11T09:49:02',
   '2023-01-13T13:08:20',
   '2023-01-23T18:57:19',
   '2023-01-25T17:46:11',
   '2023-01-26T08:31:43',
   '2023-01-26T18:14:24',
   '2023-01-31T16:47:49',
   '2023-02-01T08:27:21',
   '2023-02-09T09:41:29',
   '2023-02-09T10:51:58',
   '2023-02-09T11:58:01',
   '2023-02-15T14:21:17',
   '2023-02-24T13:08:53',
   '2023-02-27T10:55:27',
   '2023-03-01T15:07:28',
   '2023-03-02T14:49:17',
   '2023-03-13T11:46:38',
   '2023-03-23T17:01:19',
   '2023-03-28T16:58:22',
   '2023-03-29T12:54:15',
   '2023-03-30T12:40:06'}],
 'Андрей Гавриловский': [6,
  {'2022-10-07T13:10:30',
   '2022-10-20T08:24:24',
   '2022-12-05T08:40:33',
   '2023-01-25T18:27:01',
   '2023-01-27T09:07:04',
   '2023-02-17T09:59:27'}],
 'Алексей Холодарев': [11,
  {'2022-10-10T10:27:15',
   '2022-11-28T10:46:43',
   '2022-11-29T11:13:42',
   '2022-12-20T15:44:58',
   '2023-01-07T10:45:37',
   '2023-01-24T12:05:54',
   '2023-03-01T16:44:02',
   '2023-03-16T10:20:19'}],
 'Владислав Постников': [9,
  {'2022-10-12T15:34:10',
   '2022-10-12T18:31:37',
   '2022-10-12T18:35:44',
   '2022-10-15T12:35:24',
   '2022-12-29T09:40:01',
   '2023-01-16T17:24:47',
   '2023-03-01T16:44:02'}],
 'Евгений Пригожин': [28,
  {'2022-10-13T07:15:14',
   '2022-10-29T18:05:05',
   '2022-10-30T18:24:49',
   '2022-11-04T13:34:09',
   '2022-12-19T15:27:02',
   '2022-12-21T11:13:28',
   '2022-12-21T17:26:59',
   '2022-12-23T16:53:14',
   '2023-01-10T11:21:13',
   '2023-01-21T11:41:40',
   '2023-01-25T17:46:11',
   '2023-01-26T18:56:43',
   '2023-02-14T09:50:46',
   '2023-02-14T12:24:01',
   '2023-02-22T17:22:34',
   '2023-02-24T10:59:32',
   '2023-02-24T17:07:04',
   '2023-03-10T17:21:01',
   '2023-03-18T15:34:10',
   '2023-04-02T19:30:01'}],
 'Дмитрий Медведев': [11,
  {'2022-10-19T12:16:13',
   '2022-10-19T14:53:05',
   '2022-10-24T17:25:43',
   '2022-11-20T15:28:20',
   '2023-02-21T14:43:19',
   '2023-03-01T13:42:40',
   '2023-03-01T17:38:28',
   '2023-03-25T11:27:52',
   '2023-03-27T16:15:18'}],
 'Илья Вага': [19,
  {'2022-10-19T16:10:17',
   '2022-11-12T10:28:03',
   '2022-11-26T09:16:13',
   '2022-12-03T10:47:36',
   '2022-12-08T10:56:03',
   '2022-12-29T16:58:07',
   '2022-12-31T12:46:01',
   '2023-01-01T16:27:01',
   '2023-01-05T16:35:08',
   '2023-01-14T13:17:47',
   '2023-02-02T16:46:42',
   '2023-02-10T15:57:15',
   '2023-02-16T13:09:10',
   '2023-02-18T13:37:58',
   '2023-02-18T13:45:03',
   '2023-02-20T12:39:13',
   '2023-02-20T13:47:26',
   '2023-02-24T15:06:28',
   '2023-04-02T22:30:00'}],
 'Владимир Соловьев': [13,
  {'2022-10-21T17:45:58',
   '2022-10-26T17:48:24',
   '2022-11-24T12:57:01',
   '2022-12-15T10:45:36',
   '2022-12-21T10:30:18',
   '2022-12-28T09:14:33',
   '2023-01-11T13:01:56',
   '2023-02-16T10:18:01',
   '2023-02-17T15:58:02',
   '2023-02-19T17:37:00',
   '2023-03-07T17:52:32',
   '2023-03-11T13:03:02',
   '2023-04-03T17:59:51'}],
 'Марина Молдавская': [38,
  {'2022-10-22T12:24:09',
   '2022-10-23T13:01:13',
   '2022-10-29T11:30:17',
   '2022-10-29T17:16:41',
   '2022-10-29T18:05:05',
   '2022-10-30T11:24:28',
   '2022-10-30T13:32:29',
   '2022-11-04T09:05:17',
   '2022-11-05T11:00:10',
   '2022-11-06T09:36:17',
   '2022-11-06T14:42:13',
   '2022-11-12T14:23:44',
   '2022-11-12T17:39:14',
   '2022-11-13T13:25:38',
   '2022-11-13T15:25:29',
   '2022-11-19T09:10:02',
   '2022-11-19T15:35:31',
   '2022-11-27T09:28:37',
   '2022-11-27T10:48:37',
   '2022-11-27T15:56:54',
   '2022-12-03T09:27:17',
   '2022-12-03T17:31:57',
   '2022-12-04T15:54:42',
   '2022-12-10T13:55:36',
   '2022-12-11T09:10:42',
   '2022-12-11T15:26:40',
   '2022-12-17T12:03:02',
   '2022-12-17T14:16:16',
   '2022-12-18T13:50:03',
   '2022-12-25T13:27:57',
   '2022-12-31T09:54:14',
   '2023-01-01T13:55:31',
   '2023-01-02T10:42:32',
   '2023-01-03T09:33:14',
   '2023-01-03T13:10:40',
   '2023-01-03T15:04:32',
   '2023-01-05T12:01:49',
   '2023-02-07T12:34:01'}],
 'Игорь Пушкарев': [31,
  {'2022-10-25T14:07:46',
   '2022-10-25T15:57:01',
   '2022-10-31T12:33:42',
   '2022-11-03T08:57:46',
   '2022-11-15T17:54:53',
   '2022-11-23T07:38:04',
   '2022-11-24T12:18:10',
   '2022-12-14T14:09:50',
   '2022-12-19T15:27:02',
   '2022-12-21T11:13:28',
   '2022-12-21T11:44:22',
   '2022-12-21T12:13:57',
   '2022-12-26T14:50:04',
   '2022-12-27T12:20:48',
   '2023-01-13T09:49:46',
   '2023-01-13T09:51:32',
   '2023-01-13T10:01:24',
   '2023-01-25T12:20:23',
   '2023-01-25T12:47:43',
   '2023-01-25T17:46:11',
   '2023-01-28T08:45:57',
   '2023-02-09T09:35:20',
   '2023-03-09T14:27:27',
   '2023-03-22T08:42:35'}],
 'Алексей Мосин': [14,
  {'2022-10-25T15:57:01',
   '2022-11-23T11:32:47',
   '2022-12-21T09:05:44',
   '2022-12-26T08:56:00',
   '2022-12-28T18:27:03',
   '2023-02-01T08:36:47',
   '2023-02-03T15:42:55',
   '2023-03-13T13:02:38',
   '2023-03-13T14:57:39',
   '2023-03-29T16:33:58',
   '2023-04-02T17:38:52'}],
 'Алексей Бушмаков': [7,
  {'2022-10-26T12:21:39',
   '2022-10-26T12:31:29',
   '2022-11-28T16:51:41',
   '2022-12-21T18:39:11',
   '2023-01-11T14:29:22',
   '2023-03-30T12:24:00',
   '2023-03-30T14:53:20'}],
 'Дмитрий Колезев': [7,
  {'2022-10-30T09:17:35',
   '2022-11-09T10:40:52',
   '2022-11-09T12:39:51',
   '2022-11-18T21:10:01',
   '2022-11-24T12:57:01',
   '2022-12-21T18:01:29',
   '2023-03-29T17:21:04'}],
 'Елена Елизарова': [50,
  {'2022-10-31T17:23:34',
   '2022-11-22T11:53:01',
   '2022-11-26T11:47:45',
   '2022-11-27T14:16:32',
   '2022-11-28T15:30:15',
   '2022-12-01T09:01:00',
   '2022-12-01T14:24:49',
   '2022-12-02T11:47:16',
   '2022-12-02T12:57:46',
   '2022-12-03T08:12:24',
   '2022-12-05T13:45:05',
   '2022-12-06T08:06:27',
   '2022-12-07T10:38:45',
   '2022-12-08T17:57:55',
   '2022-12-09T12:59:53',
   '2022-12-09T16:06:02',
   '2022-12-10T16:07:03',
   '2022-12-11T17:14:50',
   '2022-12-14T17:29:02',
   '2022-12-18T17:04:20',
   '2022-12-21T13:36:55',
   '2022-12-22T12:42:06',
   '2022-12-22T14:12:01',
   '2022-12-22T15:07:05',
   '2022-12-23T12:30:57',
   '2022-12-23T13:57:50',
   '2022-12-24T08:46:28',
   '2022-12-24T19:03:43',
   '2022-12-25T10:51:48',
   '2022-12-29T18:05:46',
   '2022-12-31T12:46:01',
   '2023-01-01T10:22:58',
   '2023-01-02T13:32:36',
   '2023-01-03T10:58:53',
   '2023-01-09T16:14:01',
   '2023-01-18T11:10:21',
   '2023-01-26T18:14:24',
   '2023-02-01T08:27:21',
   '2023-02-03T13:34:27',
   '2023-02-09T08:55:02',
   '2023-02-13T14:43:31',
   '2023-02-13T19:45:26',
   '2023-02-15T16:27:30',
   '2023-03-07T10:57:00',
   '2023-03-09T15:48:57',
   '2023-03-14T12:03:01',
   '2023-03-18T12:30:28',
   '2023-03-18T12:43:55',
   '2023-03-30T10:33:43',
   '2023-03-31T16:48:29'}],
 'Владислав Идамжапов': [25,
  {'2022-11-10T08:08:48',
   '2022-11-10T08:11:20',
   '2022-11-18T08:14:27',
   '2022-11-18T08:29:26',
   '2022-11-18T11:03:42',
   '2023-01-12T13:19:24',
   '2023-01-13T10:01:24',
   '2023-01-25T12:20:23',
   '2023-01-25T12:47:43',
   '2023-02-04T14:21:40',
   '2023-03-16T09:54:41',
   '2023-03-16T11:17:58',
   '2023-03-16T12:33:23',
   '2023-03-16T13:00:19',
   '2023-03-16T14:47:30',
   '2023-03-16T15:15:31',
   '2023-03-16T15:27:00',
   '2023-03-16T17:15:36',
   '2023-03-16T18:15:01',
   '2023-03-17T08:28:54',
   '2023-03-17T13:14:50',
   '2023-03-17T13:34:31',
   '2023-03-17T13:55:16',
   '2023-03-29T10:03:43'}],
 'Лиза Монеточка': [7,
  {'2022-11-10T13:02:02',
   '2022-12-02T09:11:34',
   '2023-01-08T17:55:57',
   '2023-01-13T16:23:11',
   '2023-01-21T09:29:02',
   '2023-02-25T13:02:02'}],
 'Инна Малышева': [7,
  {'2022-09-30T14:13:51',
   '2022-11-12T09:44:13',
   '2022-11-18T11:03:42',
   '2022-11-19T14:24:58',
   '2022-12-17T17:40:10',
   '2023-01-01T12:31:04',
   '2023-01-20T07:54:31'}],
 'Арина Томашова': [8,
  {'2022-11-12T16:48:34',
   '2022-11-14T07:06:02',
   '2022-11-19T12:01:35',
   '2022-11-19T14:24:58',
   '2022-11-20T10:54:10',
   '2022-12-17T10:05:00',
   '2023-01-05T14:38:28',
   '2023-03-25T17:08:48'}],
 'Полина Иванова': [6,
  {'2022-11-18T11:45:40',
   '2022-12-13T18:07:39',
   '2023-01-17T10:59:00',
   '2023-02-15T11:13:58',
   '2023-03-15T17:04:13',
   '2023-03-30T09:01:18'}],
 'Константин Киселев': [8,
  {'2022-11-22T10:07:33',
   '2022-11-24T12:18:10',
   '2022-11-29T11:13:42',
   '2023-02-09T09:35:20',
   '2023-02-10T08:47:15',
   '2023-02-20T17:28:01',
   '2023-02-26T17:27:11',
   '2023-03-09T14:27:27'}],
 'Андрей Симановский': [10,
  {'2022-11-30T11:32:40',
   '2022-12-22T12:42:06',
   '2022-12-23T13:57:50',
   '2022-12-26T16:44:03',
   '2023-01-11T15:55:51',
   '2023-01-24T18:45:25',
   '2023-03-09T16:20:22',
   '2023-03-11T13:03:02',
   '2023-03-12T18:05:41'}],
 'Леонид Черный': [41,
  {'2023-02-22T09:15:30',
   '2023-02-22T09:44:40',
   '2023-03-06T13:46:32',
   '2023-03-06T14:11:32',
   '2023-03-06T14:35:49',
   '2023-03-06T14:59:51',
   '2023-03-06T15:17:57',
   '2023-03-10T07:53:20',
   '2023-03-10T07:55:41',
   '2023-03-10T08:13:21',
   '2023-03-12T18:05:41',
   '2023-03-15T12:41:04',
   '2023-03-17T08:30:13',
   '2023-03-17T09:01:06',
   '2023-03-17T09:09:24',
   '2023-03-22T14:24:00',
   '2023-03-24T12:35:20',
   '2023-03-29T12:18:15',
   '2023-03-29T12:29:13',
   '2023-03-29T12:35:24',
   '2023-03-29T13:16:55',
   '2023-03-29T14:18:48',
   '2023-03-30T17:28:13',
   '2023-03-31T12:18:25',
   '2023-03-31T12:35:39',
   '2023-03-31T12:40:51',
   '2023-03-31T12:59:09',
   '2023-03-31T13:22:56',
   '2023-04-02T18:03:04',
   '2023-04-03T07:13:07',
   '2023-04-03T12:12:06',
   '2023-04-03T12:45:40'}],
 'Владимир Ушаков': [8,
  {'2023-03-16T14:40:29',
   '2023-03-16T15:13:22',
   '2023-03-16T16:52:41',
   '2023-03-17T13:59:40',
   '2023-03-21T08:41:59',
   '2023-03-24T12:49:04',
   '2023-03-29T12:18:15',
   '2023-04-03T07:48:31'}],
 'Наталья Новикова': [12,
  {'2023-03-17T09:01:06',
   '2023-03-17T09:09:24',
   '2023-03-22T14:24:00',
   '2023-03-24T12:35:20',
   '2023-03-24T12:49:04',
   '2023-03-29T12:18:15',
   '2023-03-29T12:29:13',
   '2023-03-29T13:16:55',
   '2023-03-31T12:59:09',
   '2023-04-03T07:48:31',
   '2023-04-03T12:45:40'}],
 'Эван Гершкович': [12,
  {'2023-03-30T09:45:28',
   '2023-03-30T10:39:24',
   '2023-03-30T12:24:00',
   '2023-03-30T12:49:03',
   '2023-03-30T13:21:30',
   '2023-03-30T14:41:32',
   '2023-03-30T14:53:20',
   '2023-03-30T15:30:45',
   '2023-04-04T11:41:09'}]}