[],"['2022-09-30T22:05:32', '2022-11-17T22:05:01', '2022-12-21T22:00:49', '2023-02-04T21:20:30']",['2023-01-10T22:00:27'],"['2023-01-05T20:25:05', '2022-12-09T22:01:02', '2023-01-10T22:00:27', '2022-11-04T21:58:03', '2023-03-01T22:01:35', '2022-11-15T22:15:06', '2023-03-25T21:17:15']","['2022-10-10T22:20:01', '2022-10-22T21:05:01', '2023-01-10T22:00:27', '2022-10-25T22:10:14']","['2022-11-07T22:10:01', '2022-10-28T22:41:04', '2022-10-25T22:10:14', '2022-10-26T22:03:28']",['2022-10-26T22:03:28'],"['2023-01-09T22:17:20', '2022-10-10T22:20:01', '2022-12-26T22:00:47']","['2022-10-14T22:17:52', '2023-01-09T22:17:20', '2022-10-10T22:20:01', '2023-03-17T22:29:36']","['2022-10-10T22:20:01', '2022-12-30T22:00:22', '2022-12-19T22:06:23']","['2022-10-10T22:20:01', '2022-12-21T22:00:49', '2023-01-10T22:00:27', '2022-10-28T22:41:04', '2023-03-17T22:29:36']","['2023-03-18T21:09:12', '2022-12-05T22:05:12', '2022-10-14T22:17:52', '2022-11-07T22:10:01', '2022-12-30T22:00:22', '2022-11-17T22:05:01', '2022-10-27T22:21:26', '2023-03-16T21:59:07', '2022-12-23T22:04:37', '2022-12-19T22:06:23', '2022-10-19T22:29:41', '2023-03-17T22:29:36', '2023-03-30T22:01:01', '2022-12-12T22:04:20', '2023-01-17T22:01:31', '2022-10-25T22:10:14']","['2023-01-05T20:25:05', '2022-10-19T22:29:41', '2022-10-25T22:10:14']","['2022-10-14T22:17:52', '2023-03-16T21:59:07', '2023-03-02T22:12:20']","['2022-12-02T22:01:02', '2023-03-30T22:01:01', '2022-12-07T22:01:02']",['2022-11-15T22:15:06'],"['2022-12-30T22:00:22', '2022-12-21T22:00:49', '2022-11-10T22:00:01', '2023-02-21T22:01:01', '2023-02-22T22:01:01', '2022-10-25T22:10:14']","['2022-11-07T22:10:01', '2022-10-28T22:41:04', '2022-10-26T22:03:28']","['2023-02-04T21:20:30', '2022-11-22T22:00:26']","['2022-12-05T22:05:12', '2022-12-27T22:02:03', '2022-12-09T22:01:02']","['2023-03-25T21:17:15', '2023-01-18T22:00:35']","['2023-03-22T22:00:41', '2023-03-20T22:01:26', '2022-12-15T22:01:01', '2023-03-17T22:29:36']"
"['2023-02-04T21:20:30', '2022-12-21T22:00:49', '2022-09-30T22:05:32', '2022-11-17T22:05:01']",[],[],['2022-12-20T22:10:04'],[],[],[],[],[],['2023-03-07T22:01:09'],"['2022-11-11T22:06:01', '2022-12-21T22:00:49']","['2022-11-11T22:06:01', '2022-11-01T23:01:15', '2022-11-17T22:05:01']",[],[],[],[],"['2022-12-21T22:00:49', '2023-02-20T22:00:16']",[],['2023-02-04T21:20:30'],[],[],[]
['2023-01-10T22:00:27'],[],[],"['2023-01-10T22:00:27', '2022-10-29T21:00:01', '2022-10-01T19:35:32', '2023-02-17T22:01:02']","['2023-01-10T22:00:27', '2022-10-29T21:00:01', '2022-10-01T19:35:32', '2023-02-17T22:01:02']",[],[],[],[],[],['2023-01-10T22:00:27'],[],[],[],[],[],[],[],[],[],[],[]
"['2023-01-05T20:25:05', '2023-03-01T22:01:35', '2022-11-15T22:15:06', '2023-03-25T21:17:15', '2022-12-09T22:01:02', '2023-01-10T22:00:27', '2022-11-04T21:58:03']",['2022-12-20T22:10:04'],"['2022-10-29T21:00:01', '2022-10-01T19:35:32', '2023-01-10T22:00:27', '2023-02-17T22:01:02']",[],"['2022-10-29T21:00:01', '2022-10-01T19:35:32', '2023-01-10T22:00:27', '2023-02-17T22:01:02']",[],[],['2023-01-16T22:14:12'],[],[],['2023-01-10T22:00:27'],"['2023-02-13T22:00:19', '2023-01-21T20:59:02', '2023-01-19T22:01:03', '2023-01-16T22:14:12']",['2023-01-05T20:25:05'],[],[],"['2023-02-13T22:00:19', '2022-11-15T22:15:06']",[],[],[],"['2022-12-09T22:01:02', '2022-11-29T22:05:25']","['2023-03-25T21:17:15', '2023-02-14T22:01:23']",[]
"['2022-10-10T22:20:01', '2022-10-25T22:10:14', '2023-01-10T22:00:27', '2022-10-22T21:05:01']",[],"['2022-10-29T21:00:01', '2022-10-01T19:35:32', '2023-01-10T22:00:27', '2023-02-17T22:01:02']","['2022-10-29T21:00:01', '2022-10-01T19:35:32', '2023-01-10T22:00:27', '2023-02-17T22:01:02']",[],['2022-10-25T22:10:14'],[],['2022-10-10T22:20:01'],['2022-10-10T22:20:01'],['2022-10-10T22:20:01'],"['2022-10-10T22:20:01', '2023-01-10T22:00:27']",['2022-10-25T22:10:14'],['2022-10-25T22:10:14'],[],[],[],['2022-10-25T22:10:14'],[],[],[],[],[]
"['2022-10-25T22:10:14', '2022-10-28T22:41:04', '2022-10-26T22:03:28', '2022-11-07T22:10:01']",[],[],[],['2022-10-25T22:10:14'],[],['2022-10-26T22:03:28'],[],[],[],['2022-10-28T22:41:04'],"['2022-10-25T22:10:14', '2022-11-07T22:10:01']",['2022-10-25T22:10:14'],[],[],[],['2022-10-25T22:10:14'],"['2022-10-28T22:41:04', '2022-10-26T22:03:28', '2022-11-07T22:10:01']",[],[],[],[]
['2022-10-26T22:03:28'],[],[],[],[],['2022-10-26T22:03:28'],[],[],[],[],['2023-03-15T22:00:05'],[],[],[],[],[],[],['2022-10-26T22:03:28'],[],[],[],[]
"['2022-10-10T22:20:01', '2023-01-09T22:17:20', '2022-12-26T22:00:47']",[],[],['2023-01-16T22:14:12'],['2022-10-10T22:20:01'],[],[],[],"['2022-10-10T22:20:01', '2023-01-09T22:17:20']",['2022-10-10T22:20:01'],"['2022-10-10T22:20:01', '2023-03-04T21:01:04']",['2023-01-16T22:14:12'],[],[],[],[],['2023-03-04T21:01:04'],[],[],[],[],[]
"['2022-10-10T22:20:01', '2023-03-17T22:29:36', '2022-10-14T22:17:52', '2023-01-09T22:17:20']",[],[],[],['2022-10-10T22:20:01'],[],[],"['2022-10-10T22:20:01', '2023-01-09T22:17:20']",[],['2022-10-10T22:20:01'],"['2022-10-10T22:20:01', '2023-03-17T22:29:36']","['2023-03-17T22:29:36', '2022-10-14T22:17:52', '2022-10-24T21:59:01']",[],['2022-10-14T22:17:52'],[],[],[],[],[],[],[],['2023-03-17T22:29:36']
"['2022-10-10T22:20:01', '2022-12-30T22:00:22', '2022-12-19T22:06:23']",['2023-03-07T22:01:09'],[],[],['2022-10-10T22:20:01'],[],[],['2022-10-10T22:20:01'],['2022-10-10T22:20:01'],[],['2022-10-10T22:20:01'],"['2022-12-30T22:00:22', '2022-12-19T22:06:23', '2023-03-31T22:01:02']",[],[],[],[],['2022-12-30T22:00:22'],[],[],[],[],[]
"['2022-10-10T22:20:01', '2023-03-17T22:29:36', '2022-12-21T22:00:49', '2022-10-28T22:41:04', '2023-01-10T22:00:27']","['2022-11-11T22:06:01', '2022-12-21T22:00:49']",['2023-01-10T22:00:27'],['2023-01-10T22:00:27'],"['2022-10-10T22:20:01', '2023-01-10T22:00:27']",['2022-10-28T22:41:04'],['2023-03-15T22:00:05'],"['2022-10-10T22:20:01', '2023-03-04T21:01:04']","['2022-10-10T22:20:01', '2023-03-17T22:29:36']",['2022-10-10T22:20:01'],[],"['2022-11-11T22:06:01', '2023-03-17T22:29:36']",['2022-11-09T22:01:59'],[],[],[],"['2022-12-21T22:00:49', '2023-03-04T21:01:04']",['2022-10-28T22:41:04'],[],[],[],['2023-03-17T22:29:36']
"['2023-03-18T21:09:12', '2022-12-05T22:05:12', '2022-10-19T22:29:41', '2022-10-14T22:17:52', '2023-03-30T22:01:01', '2023-03-17T22:29:36', '2022-12-12T22:04:20', '2022-11-07T22:10:01', '2022-12-30T22:00:22', '2023-01-17T22:01:31', '2022-11-17T22:05:01', '2022-10-27T22:21:26', '2023-03-16T21:59:07', '2022-12-23T22:04:37', '2022-10-25T22:10:14', '2022-12-19T22:06:23']","['2022-11-01T23:01:15', '2022-11-17T22:05:01', '2022-11-11T22:06:01']",[],"['2023-02-13T22:00:19', '2023-01-21T20:59:02', '2023-01-19T22:01:03', '2023-01-16T22:14:12']",['2022-10-25T22:10:14'],"['2022-11-07T22:10:01', '2022-10-25T22:10:14']",[],['2023-01-16T22:14:12'],"['2022-10-14T22:17:52', '2023-03-17T22:29:36', '2022-10-24T21:59:01']","['2022-12-30T22:00:22', '2023-03-31T22:01:02', '2022-12-19T22:06:23']","['2023-03-17T22:29:36', '2022-11-11T22:06:01']",[],"['2022-10-19T22:29:41', '2022-10-25T22:10:14']","['2022-10-14T22:17:52', '2023-03-16T21:59:07', '2023-03-13T22:01:03']",['2023-03-30T22:01:01'],['2023-02-13T22:00:19'],"['2022-12-30T22:00:22', '2022-10-25T22:10:14']",['2022-11-07T22:10:01'],[],['2022-12-05T22:05:12'],['2023-01-13T22:01:10'],['2023-03-17T22:29:36']
"['2023-01-05T20:25:05', '2022-10-25T22:10:14', '2022-10-19T22:29:41']",[],[],['2023-01-05T20:25:05'],['2022-10-25T22:10:14'],['2022-10-25T22:10:14'],[],[],[],[],['2022-11-09T22:01:59'],"['2022-10-25T22:10:14', '2022-10-19T22:29:41']",[],[],[],[],['2022-10-25T22:10:14'],[],[],[],[],[]
"['2022-10-14T22:17:52', '2023-03-16T21:59:07', '2023-03-02T22:12:20']",[],[],[],[],[],[],[],['2022-10-14T22:17:52'],[],[],"['2022-10-14T22:17:52', '2023-03-13T22:01:03', '2023-03-16T21:59:07']",[],[],[],[],[],[],[],[],[],[]
"['2023-03-30T22:01:01', '2022-12-02T22:01:02', '2022-12-07T22:01:02']",[],[],[],[],[],[],[],[],[],[],['2023-03-30T22:01:01'],[],[],[],['2022-10-17T22:33:01'],[],[],['2022-11-18T22:01:02'],[],[],[]
['2022-11-15T22:15:06'],[],[],"['2022-11-15T22:15:06', '2023-02-13T22:00:19']",[],[],[],[],[],[],[],['2023-02-13T22:00:19'],[],[],['2022-10-17T22:33:01'],[],[],[],[],[],[],[]
"['2023-02-21T22:01:01', '2022-11-10T22:00:01', '2022-12-21T22:00:49', '2022-10-25T22:10:14', '2022-12-30T22:00:22', '2023-02-22T22:01:01']","['2022-12-21T22:00:49', '2023-02-20T22:00:16']",[],[],['2022-10-25T22:10:14'],['2022-10-25T22:10:14'],[],['2023-03-04T21:01:04'],[],['2022-12-30T22:00:22'],"['2022-12-21T22:00:49', '2023-03-04T21:01:04']","['2022-10-25T22:10:14', '2022-12-30T22:00:22']",['2022-10-25T22:10:14'],[],[],[],[],[],[],[],[],[]
"['2022-10-28T22:41:04', '2022-11-07T22:10:01', '2022-10-26T22:03:28']",[],[],[],[],"['2022-10-28T22:41:04', '2022-11-07T22:10:01', '2022-10-26T22:03:28']",['2022-10-26T22:03:28'],[],[],[],['2022-10-28T22:41:04'],['2022-11-07T22:10:01'],[],[],[],[],[],[],[],[],[],[]
"['2022-11-22T22:00:26', '2023-02-04T21:20:30']",['2023-02-04T21:20:30'],[],[],[],[],[],[],[],[],[],[],[],[],['2022-11-18T22:01:02'],[],[],[],[],[],[],[]
"['2022-12-05T22:05:12', '2022-12-27T22:02:03', '2022-12-09T22:01:02']",[],[],"['2022-12-09T22:01:02', '2022-11-29T22:05:25']",[],[],[],[],[],[],[],['2022-12-05T22:05:12'],[],[],[],[],[],[],[],[],[],[]
"['2023-01-18T22:00:35', '2023-03-25T21:17:15']",[],[],"['2023-02-14T22:01:23', '2023-03-25T21:17:15']",[],[],[],[],[],[],[],['2023-01-13T22:01:10'],[],[],[],[],[],[],[],[],[],[]
"['2022-12-15T22:01:01', '2023-03-20T22:01:26', '2023-03-17T22:29:36', '2023-03-22T22:00:41']",[],[],[],[],[],[],[],['2023-03-17T22:29:36'],[],['2023-03-17T22:29:36'],['2023-03-17T22:29:36'],[],[],[],[],[],[],[],[],[],[]
